<svg width="16" height="20" viewBox="0 0 16 20" fill="none" xmlns="http://www.w3.org/2000/svg">
<path d="M11.5268 6.20668C11.4651 6.14488 11.3919 6.09585 11.3112 6.06239C11.2306 6.02894 11.1441 6.01172 11.0568 6.01172C10.9695 6.01172 10.883 6.02894 10.8024 6.06239C10.7217 6.09585 10.6485 6.14488 10.5868 6.20668L8.00015 8.79335L5.41348 6.20668C5.28883 6.08203 5.11977 6.012 4.94348 6.012C4.7672 6.012 4.59813 6.08203 4.47348 6.20668C4.34883 6.33133 4.2788 6.5004 4.2788 6.67668C4.2788 6.85297 4.34883 7.02203 4.47348 7.14668L7.53348 10.2067C7.59516 10.2685 7.66842 10.3175 7.74907 10.351C7.82971 10.3844 7.91617 10.4016 8.00348 10.4016C8.09079 10.4016 8.17725 10.3844 8.2579 10.351C8.33855 10.3175 8.41181 10.2685 8.47348 10.2067L11.5335 7.14668C11.7868 6.89335 11.7868 6.46668 11.5268 6.20668Z" fill="white"/>
<path d="M11.5268 9.54006C11.4651 9.47825 11.3919 9.42922 11.3112 9.39577C11.2306 9.36231 11.1441 9.34509 11.0568 9.34509C10.9695 9.34509 10.883 9.36231 10.8024 9.39577C10.7217 9.42922 10.6485 9.47825 10.5868 9.54006L8.00015 12.1267L5.41348 9.54006C5.28883 9.4154 5.11977 9.34538 4.94348 9.34538C4.7672 9.34538 4.59813 9.4154 4.47348 9.54006C4.34883 9.66471 4.2788 9.83377 4.2788 10.0101C4.2788 10.1863 4.34883 10.3554 4.47348 10.4801L7.53348 13.5401C7.59516 13.6019 7.66842 13.6509 7.74907 13.6843C7.82971 13.7178 7.91617 13.735 8.00348 13.735C8.09079 13.735 8.17725 13.7178 8.2579 13.6843C8.33855 13.6509 8.41181 13.6019 8.47348 13.5401L11.5335 10.4801C11.7868 10.2267 11.7868 9.80006 11.5268 9.54006Z" fill="white"/>
</svg>
