<svg width="40" height="40" viewBox="0 0 40 40" fill="none" xmlns="http://www.w3.org/2000/svg">
<path d="M37.0525 5.30862C29.9591 3.03381 24.5845 0 24.5845 0H24.5736C24.5736 0 19.2758 3.07659 12.1046 5.30971C12.1046 5.30971 9.58838 21.3112 24.5374 28.5481H24.6175C39.5686 21.3102 37.0525 5.30862 37.0525 5.30862ZM24.7524 26.9467L24.578 27.0389L24.4047 26.9467C13.367 21.1358 13.1586 9.90101 13.355 6.59409L13.3703 6.34182L13.6116 6.26176C18.8041 4.54194 22.8943 2.46566 24.4112 1.65181L24.5867 1.55749L24.7622 1.64962C26.2934 2.45469 30.4099 4.51342 35.5564 6.25518L35.7933 6.33524L35.8108 6.58422C36.0379 9.87908 35.915 21.0831 24.7524 26.9467ZM35.077 6.88585C30.1785 5.20771 26.2342 3.26195 24.59 2.40752C22.959 3.27292 19.0367 5.23403 14.091 6.89353C13.9297 10.3496 14.3729 20.7047 24.578 26.1899C34.9015 20.6543 35.2679 10.3266 35.077 6.88585ZM24.476 21.3562C20.2816 21.3562 16.8835 17.9572 16.8835 13.764C16.8835 9.56977 20.2827 6.17072 24.476 6.17072C28.6692 6.17072 32.0695 9.56977 32.0695 13.764C32.0695 17.9583 28.6703 21.3562 24.476 21.3562ZM24.578 20.7003C24.1831 20.7003 23.7816 20.6663 23.3956 20.5983C23.1893 20.5632 23.0533 20.3691 23.0895 20.164C23.1257 19.96 23.3166 19.8229 23.5239 19.8591C24.2226 19.9808 24.9553 19.9797 25.6496 19.8569C25.8525 19.8196 26.0477 19.9578 26.0839 20.1618C26.1201 20.3669 25.9841 20.5599 25.7823 20.5961C25.3841 20.6652 24.9805 20.7003 24.578 20.7003ZM21.3412 19.836C21.2753 19.836 21.2128 19.8196 21.1514 19.7856C20.4571 19.3852 19.8429 18.8708 19.324 18.2544C19.1913 18.0954 19.2111 17.8596 19.369 17.7268C19.5292 17.5919 19.765 17.6128 19.8977 17.7718C20.3584 18.3202 20.9057 18.7776 21.5254 19.1352C21.7053 19.2383 21.7667 19.4686 21.6625 19.6474C21.5956 19.768 21.4684 19.836 21.3412 19.836ZM27.8301 19.8305C27.7007 19.8305 27.5746 19.7625 27.5033 19.6441C27.3991 19.4642 27.4627 19.235 27.6404 19.1308C28.2579 18.7721 28.8052 18.3125 29.2659 17.7641C29.3997 17.604 29.6366 17.5842 29.7946 17.7181C29.9525 17.8519 29.9745 18.0877 29.8407 18.2456C29.3218 18.862 28.7109 19.3776 28.0166 19.779C27.9563 19.813 27.8916 19.8305 27.8301 19.8305ZM18.4817 16.4425C18.3281 16.4425 18.1844 16.3481 18.1285 16.1946C17.8543 15.4433 17.7139 14.6557 17.7128 13.8485C17.7128 13.6412 17.8806 13.4723 18.0868 13.4723C18.0868 13.4723 18.0868 13.4723 18.0879 13.4723C18.2941 13.4723 18.4641 13.6379 18.4641 13.8463C18.4652 14.5647 18.5892 15.2678 18.8348 15.9357C18.905 16.1299 18.8063 16.3459 18.6111 16.4161C18.5683 16.4348 18.5244 16.4425 18.4817 16.4425ZM30.6798 16.4293C30.637 16.4293 30.5942 16.4216 30.5514 16.4063C30.3573 16.335 30.2564 16.12 30.3266 15.9259C30.5723 15.2579 30.6929 14.5526 30.6929 13.8353C30.6929 13.628 30.8607 13.447 31.068 13.447C31.2753 13.447 31.4454 13.6028 31.4454 13.8101V13.8364C31.4454 14.6415 31.3071 15.4334 31.0329 16.1847C30.977 16.3339 30.8333 16.4293 30.6798 16.4293ZM18.4729 12.0036C18.4301 12.0036 18.3873 11.9959 18.3456 11.9806C18.1504 11.9115 18.0495 11.6943 18.1197 11.5002C18.3928 10.7456 18.7921 10.0513 19.3076 9.43267C19.4403 9.27363 19.6772 9.25169 19.8363 9.38551C19.9953 9.51822 20.0162 9.75513 19.8834 9.91417C19.4239 10.4637 19.0674 11.0812 18.825 11.7535C18.7701 11.9071 18.6264 12.0036 18.4729 12.0036ZM30.671 11.9663C30.5152 11.9663 30.3737 11.872 30.3189 11.7195C30.0721 11.0527 29.7134 10.4341 29.2495 9.88675C29.1156 9.72662 29.1354 9.49299 29.2944 9.35918C29.4535 9.22537 29.6871 9.24511 29.8209 9.40415C30.3419 10.0184 30.7445 10.7094 31.0209 11.4618C31.0922 11.657 30.9956 11.872 30.8004 11.9422C30.7587 11.9597 30.7148 11.9663 30.671 11.9663ZM21.3192 8.59689C21.1898 8.59689 21.0658 8.52998 20.9945 8.41043C20.8903 8.23165 20.9507 8.00132 21.1306 7.89712C21.8249 7.49239 22.5784 7.21599 23.3681 7.0756C23.5765 7.03831 23.7674 7.17541 23.8025 7.37832C23.8376 7.58343 23.7016 7.77756 23.5009 7.81376C22.7945 7.9388 22.1265 8.18558 21.509 8.54534C21.4475 8.58153 21.385 8.59689 21.3192 8.59689ZM27.8049 8.57824C27.7413 8.57824 27.6777 8.56069 27.6184 8.52889C26.9987 8.17242 26.3263 7.92893 25.6233 7.80937C25.4182 7.77427 25.281 7.58014 25.3183 7.37503C25.3512 7.17102 25.5487 7.03611 25.7516 7.06902C26.5435 7.20502 27.2982 7.47704 27.9947 7.87628C28.1745 7.98048 28.2371 8.20971 28.1329 8.38849C28.0627 8.51024 27.9354 8.57824 27.8049 8.57824ZM27.4517 14.444C27.3168 14.2137 27.1358 14.0338 26.9077 13.9066C26.7486 13.8145 26.5205 13.7311 26.2221 13.6554C26.5007 13.5611 26.7245 13.4416 26.8934 13.2957C27.0623 13.1509 27.1929 12.9842 27.2828 12.7955C27.3727 12.6058 27.4177 12.4062 27.4177 12.1956C27.4177 11.9049 27.3322 11.6406 27.1632 11.3971C26.9921 11.1547 26.7486 10.9682 26.4316 10.8399C26.3088 10.7894 26.1618 10.751 26.0039 10.7225V9.59719H24.9235V10.6468H24.2292V9.59719H23.1488V10.6468H21.5013V11.5287H21.7525C21.9181 11.5287 22.0333 11.5462 22.0936 11.5748C22.1528 11.6044 22.1945 11.6461 22.2186 11.6976C22.2417 11.7492 22.2559 11.8698 22.2559 12.0585V15.6155C22.2559 15.8019 22.2417 15.9204 22.2186 15.9741C22.1945 16.0279 22.1506 16.0684 22.0936 16.097C22.0344 16.1266 21.9203 16.1408 21.7525 16.1408H21.5013V17.0227H23.1488V18.0723H24.2292V17.0227H24.8434C24.8708 17.0227 24.896 17.0216 24.9235 17.0216V18.0723H26.0039V16.9327C26.1849 16.8987 26.3439 16.8549 26.4799 16.8C26.8528 16.6498 27.1424 16.4337 27.3442 16.1474C27.5482 15.8622 27.6502 15.5518 27.6502 15.2129C27.6535 14.931 27.5855 14.6744 27.4517 14.444ZM25.3852 11.7503C25.5454 11.8007 25.6649 11.8852 25.7494 12.0036C25.8328 12.121 25.8744 12.2636 25.8744 12.4325C25.8744 12.5948 25.8306 12.7374 25.7428 12.8613C25.654 12.9842 25.5234 13.0763 25.3469 13.1366C25.1714 13.1992 24.9037 13.2277 24.5385 13.2277H23.8365V11.6735H24.5385C24.9432 11.6735 25.2284 11.7009 25.3852 11.7503ZM24.6844 16.0037H24.2193C24.0613 16.0037 23.9681 15.995 23.9319 15.9796C23.899 15.961 23.8716 15.9324 23.8584 15.8897C23.8442 15.8557 23.8365 15.7416 23.8354 15.5464V14.1655H24.6602C25.0233 14.1655 25.292 14.1984 25.4686 14.2653C25.6452 14.3333 25.7768 14.432 25.8657 14.5625C25.9534 14.6941 25.9984 14.8543 25.9984 15.0429C25.9984 15.2656 25.9337 15.4553 25.8097 15.6144C25.6869 15.7734 25.5333 15.8765 25.3567 15.927C25.1812 15.9796 24.9564 16.0037 24.6844 16.0037ZM37.965 29.7535H14.2127L8.61986 12.9239C8.50908 12.5893 8.24584 12.3305 7.9113 12.223L2.36781 10.4604C1.79306 10.2783 1.17443 10.5964 0.99016 11.1722C0.806986 11.7492 1.12617 12.3678 1.70311 12.5509L6.71353 14.1435L12.3777 31.1947C12.5279 31.6422 12.948 31.9471 13.4186 31.9471H19.7003C17.7665 32.2575 16.2825 33.9225 16.2825 35.9429C16.2825 38.1815 18.1032 40 20.3408 40C22.5806 40 24.4003 38.1793 24.4003 35.9429C24.4003 33.9236 22.9151 32.2586 20.9825 31.9471H30.7401C28.8074 32.2575 27.3223 33.9225 27.3223 35.9429C27.3223 38.1815 29.1431 40 31.3806 40C33.6182 40 35.439 38.1793 35.439 35.9429C35.439 33.9236 33.9539 32.2586 32.0212 31.9471H37.965C38.5727 31.9471 39.0619 31.4558 39.0619 30.8503C39.0619 30.2438 38.5727 29.7535 37.965 29.7535ZM22.2077 35.9407C22.2077 36.9695 21.3686 37.8042 20.3419 37.8042C19.3131 37.8042 18.4773 36.9662 18.4773 35.9407C18.4773 34.9118 19.3142 34.075 20.3419 34.075C21.3686 34.0761 22.2077 34.9118 22.2077 35.9407ZM33.2453 35.9407C33.2453 36.9695 32.4084 37.8042 31.3806 37.8042C30.3529 37.8042 29.5171 36.9662 29.5171 35.9407C29.5171 34.9118 30.3551 34.075 31.3806 34.075C32.4084 34.0739 33.2453 34.9118 33.2453 35.9407Z" fill="black"/>
</svg>
