<svg width="24" height="30" viewBox="0 0 24 30" fill="none" xmlns="http://www.w3.org/2000/svg">
<path d="M22.7389 30H1.26163C1.13708 30 1.01799 29.9491 0.932535 29.8591C0.847081 29.7691 0.801626 29.6482 0.807081 29.5237L1.82981 8.04637C1.84163 7.80365 2.04072 7.61365 2.28435 7.61365H21.7162C21.9589 7.61365 22.1589 7.80365 22.1707 8.04637L23.1934 29.5237C23.1989 29.6482 23.1544 29.7691 23.068 29.8591C22.9816 29.9491 22.8625 30 22.7389 30ZM1.73799 29.0909H22.2616L21.2825 8.52274H2.71708L1.73799 29.0909Z" fill="black"/>
<path d="M16.9137 10.3409C16.6627 10.3409 16.4591 10.1373 16.4591 9.88636V5.36818C16.4591 2.91 14.4591 0.909091 12 0.909091C9.54093 0.909091 7.54093 2.91 7.54093 5.36818V9.88636C7.54093 10.1373 7.33729 10.3409 7.08638 10.3409C6.83547 10.3409 6.63184 10.1373 6.63184 9.88636V5.36818C6.63184 2.40818 9.04002 0 12 0C14.96 0 17.3682 2.40818 17.3682 5.36818V9.88636C17.3682 10.1373 17.1655 10.3409 16.9137 10.3409Z" fill="black"/>
</svg>
